[
  "<%= modulesDir %>app/app.js",
  "<%= modulesDir %>app/utils/math.js",
  "<%= modulesDir %>app/utils/draw.js",
  "<%= modulesDir %>app/utils/helpers.js",
  "<%= modulesDir %>app/effects/particles.js",
  "<%= modulesDir %>app/particleApp1.js",
  "<%= modulesDir %>app/run.js"
]
